<?xml version="1.0" encoding="UTF-8"?>
<svg width="18px" height="19px" viewBox="0 0 18 19" version="1.1" xmlns="http://www.w3.org/2000/svg" xmlns:xlink="http://www.w3.org/1999/xlink">
    <!-- Generator: Sketch 50.2 (55047) - http://www.bohemiancoding.com/sketch -->
    <title>add_user</title>
    <desc>Created with Sketch.</desc>
    <defs></defs>
    <g id="Page-1" stroke="none" stroke-width="1" fill="none" fill-rule="evenodd">
        <g id="add_user" transform="translate(-3.000000, -2.000000)">
            <rect id="Rectangle-path" x="0" y="0" width="24" height="24"></rect>
            <path d="M20,20.9773711 L19.9999428,18.5874382 C20.0141757,14.9247856 17.3729206,11.7910932 13.7607375,11.1849913 C15.1594673,10.4108511 16.0234617,8.93435355 16.0131963,7.33571891 C16.0727276,5.01928505 14.257448,3.08613012 11.9418505,3 C9.62625311,3.08613012 7.81097347,5.01928505 7.87050472,7.33571891 C7.84851702,8.95686779 8.72852639,10.456143 10.1546883,11.227291 C6.57846915,11.8740207 3.98313978,14.9955508 4.00008247,18.6297379 L4,20.9773711" id="Shape" stroke="#333333" stroke-linecap="round" stroke-linejoin="round"></path>
        </g>
    </g>
</svg>