[
    {
        "Footer1ListOneRowOne":
                [
                    {
                        "ListName": "@home",
                        "Action": "#"
                    },
                    {
                        "ListName": "@work",
                        "Action": "#"
                    },
                    {
                        "ListName": "@partners",
                        "Action": "#"
                    }
                  
                ]
    },
    
    
    {
        "Footer1ListOneRowTwo":
                [
                   
                    {
                        "ListName": "Log In",
                        "Action": "#"
                    },
                    {
                        "ListName": "Partner",
                        "Action": "#"
                    }
                ]
    },
    
    {
        "FooterListImage":
                [
                    {
                        "ListImage": "images/LifeIsOn.png"
                    }
                ]
    },
    {
        "Footer1TitleTwo": "OUR COMPANY ",
        "Footer1ListTwo":
                [
                    {
                        "ListName": "About us",
                        "Action": "#"
                    },
                    {
                        "ListName": "Brands",
                        "Action": "#"
                    },
                    {
                        "ListName": "Careers",
                        "Action": "#"
                    },
                    {
                        "ListName": "Community",
                        "Action": "#"
                    },
                    {
                        "ListName": "News",
                        "Action": "#"
                    },
                    {
                        "ListName": "Sustainable Development Foundation",
                        "Action": "#"
                    },
                    {
                        "ListName": "Supplier Resource Center",
                        "Action": "#"
                    }
                ]
    },
    {
        "Footer1TitleThree": "QUICKLINKS ",
        "Footer1ListThree":
                [
                    {
                        "ListName": "DIGESTplus",
                        "Action": "#"
                    },
                    {
                        "ListName": "Product FAQ",
                        "Action": "#"
                    },
                    {
                        "ListName": "Lorem ipsum consectetuer ordinum",
                        "Action": "#"
                    },
                    {
                        "ListName": "Dolor sit amet delendo",
                        "Action": "#"
                    },
                    {
                        "ListName": "Nunc Carthago",
                        "Action": "#"
                    }
                ]
    },
    {
        "Footer1TitleFour": "GET OUR NEWSLETTER",
        "Footer1ListFour":
                [
                    {
                        "ListName": "Get the latest on new products,best practices and innovation",
                        "Action": "#"
                    }
                ]
    }
   
]